Dilution Curve Validation Test Kit • DCVtestkit
…
Usage

We first create our data set.

Merge the data together using create_dilution_table

# Create dilution table and dilution statistical summary
dilution_table <- create_dilution_table(dilution_annot, lipid_data,
                                        common_column = "Sample_Name",
                                        signal_var = "Area",
                                        column_group = "Transition_Name"
                                        )

print(dilution_table, width = 100)
#> # A tibble: 164 x 5
#>    Sample_Name Dilution_Batch Dilution_Percent Transition_Name     Area
#>    <chr>       <chr>                     <dbl> <chr>              <dbl>
#>  1 Sample_010a B1                           10 Lipid1           5748124
#>  2 Sample_010a B1                           10 Lipid2             31538
#>  3 Sample_010a B1                           10 Lipid3               544
#>  4 Sample_010a B1                           10 Lipid4            380519
#>  5 Sample_010a B1                           10 Lipid1           5192648
#>  6 Sample_010a B1                           10 Lipid2             25463
#>  7 Sample_010a B1                           10 Lipid3               500
#>  8 Sample_010a B1                           10 Lipid4            197417
#>  9 Sample_020a B1                           20 Lipid1          16616414
#> 10 Sample_020a B1                           20 Lipid2             53709
#> # ... with 154 more rows
…
