…
curve_data <- tibble::tibble(
  Sample_Name = sample_name,
  `Curve_1` = curve_1_saturation_regime,
  `Curve_2` = curve_2_good_linearity,
  `Curve_3` = curve_3_noise_regime,
  `Curve_4` = curve_4_poor_linearity
)
```

The `curve_batch_annot` should look like this.

``` r
print(curve_batch_annot, width = 100)
#> # A tibble: 21 × 3
#>    Sample_Name Curve_Batch_Name Concentration
#>    <chr>       <chr>                    <dbl>
#>  1 Sample_010a B1                          10
#>  2 Sample_020a B1                          20
#>  3 Sample_025a B1                          25
#>  4 Sample_040a B1                          40
#>  5 Sample_050a B1                          50
#>  6 Sample_060a B1                          60
#>  7 Sample_075a B1                          75
#>  8 Sample_080a B1                          80
#>  9 Sample_100a B1                         100
#> 10 Sample_125a B1                         125
#> # … with 11 more rows
```

The `curve_data` should look like this.

``` r
print(curve_data, width = 100)
#> # A tibble: 21 × 5
#>    Sample_Name  Curve_1 Curve_2 Curve_3 Curve_4
#>    <chr>          <dbl>   <dbl>   <dbl>   <dbl>
#>  1 Sample_010a  5748124   31538     544  380519
#>  2 Sample_020a 16616414   53709     397  485372
#>  3 Sample_025a 21702718   69990     829  478770
#>  4 Sample_040a 36191617  101977    1437  474467
#>  5 Sample_050a 49324541  146436    1808  531640
#>  6 Sample_060a 55618266  180960    2231  576301
#>  7 Sample_075a 66947588  232881    3343  501068
#>  8 Sample_080a 74964771  283780    2915  550201
#>  9 Sample_100a 75438063  298289    5268  515110
#> 10 Sample_125a 91770737  344519    8031  499543
#> # … with 11 more rows
```
…
``` r
# Create curve table
curve_table <- lancer::create_curve_table(
  curve_batch_annot = curve_batch_annot, 
  curve_data_wide = curve_data,
  common_column = "Sample_Name",
  signal_var = "Signal",
  column_group = "Curve_Name"
)
```

``` r
print(curve_table, width = 100)
#> # A tibble: 84 × 5
#>    Sample_Name Curve_Batch_Name Concentration Curve_Name   Signal
#>    <chr>       <chr>                    <dbl> <chr>         <dbl>
#>  1 Sample_010a B1                          10 Curve_1     5748124
#>  2 Sample_010a B1                          10 Curve_2       31538
#>  3 Sample_010a B1                          10 Curve_3         544
#>  4 Sample_010a B1                          10 Curve_4      380519
#>  5 Sample_020a B1                          20 Curve_1    16616414
#>  6 Sample_020a B1                          20 Curve_2       53709
#>  7 Sample_020a B1                          20 Curve_3         397
#>  8 Sample_020a B1                          20 Curve_4      485372
#>  9 Sample_025a B1                          25 Curve_1    21702718
#> 10 Sample_025a B1                          25 Curve_2       69990
#> # … with 74 more rows
```
…
