…
---

    Code
      create_dilution_table(dilution_annot = curve_batch_annot, lipid_data_wide = curve_data_wide,
        common_column = c("Sample_Name"), signal_var = "Signal", column_group = "Curve_Name")
    Condition
      Warning:
      `create_dilution_table()` was deprecated in lancer 0.0.6.9000.
      i Please use `create_curve_table()` instead.
    Output
      # A tibble: 24 x 5
         Sample_Name Curve_Batch_Name Concentration Curve_Name  Signal
         <chr>       <chr>                    <dbl> <chr>        <dbl>
       1 Sample_010a B1                          10 Curve_1      22561
       2 Sample_010a B1                          10 Curve_2    2299075
       3 Sample_020a B1                          20 Curve_1      31178
       4 Sample_020a B1                          20 Curve_2    4136350
       5 Sample_040a B1                          40 Curve_1      39981
       6 Sample_040a B1                          40 Curve_2    7020062
       7 Sample_060a B1                          60 Curve_1      48390
       8 Sample_060a B1                          60 Curve_2    8922063
       9 Sample_080a B1                          80 Curve_1      52171
      10 Sample_080a B1                          80 Curve_2    9288742
      # i 14 more rows
…
