Create Dilution Table — create_dilution_table • lancer
…
  Dilution_Percent = dilution_percent
)
lipid_data <- tibble::tibble(
  Sample_Name = sample_name,
  Lipid1 = lipid1_area,
  Lipid2 = lipid2_area
)
# Create dilution table
dilution_table <- create_dilution_table(dilution_annot, lipid_data,
  common_column = "Sample_Name",
  signal_var = "Area",
  column_group = "Transition_Name"
)
print(dilution_table, width = 100)
#> # A tibble: 24 × 5
#>    Sample_Name Dilution_Batch_Name Dilution_Percent Transition_Name    Area
#>    <chr>       <chr>                          <dbl> <chr>             <dbl>
#>  1 Sample_010a B1                                10 Lipid1            22561
#>  2 Sample_010a B1                                10 Lipid2          2299075
#>  3 Sample_020a B1                                20 Lipid1            31178
#>  4 Sample_020a B1                                20 Lipid2          4136350
#>  5 Sample_040a B1                                40 Lipid1            39981
#>  6 Sample_040a B1                                40 Lipid2          7020062
#>  7 Sample_060a B1                                60 Lipid1            48390
#>  8 Sample_060a B1                                60 Lipid2          8922063
#>  9 Sample_080a B1                                80 Lipid1            52171
#> 10 Sample_080a B1                                80 Lipid2          9288742
#> # … with 14 more rows
…
